3.2 Functional Programming with purrr | R Module 2
…
[[1]]
# A tibble: 21 x 28
   team  no    player       age   pos   games_g games_gs rushing_att rushing_yds
   <chr> <chr> <chr>        <chr> <chr> <chr>   <chr>    <chr>       <chr>      
 1 atl   21    Todd Gurley  26    "RB"  15      15       195         678        
 2 atl   23    Brian Hill   25    ""    16      1        100         465        
 3 atl   25    Ito Smith    25    ""    14      0        63          268        
 4 atl   2     Matt Ryan    35    "QB"  16      16       29          92         
 5 atl   18    Calvin Ridl~ 26    "WR"  15      15       5           1          
 6 atl   40    Keith Smith  28    "FB"  16      7        4           7          
 7 atl   36    Tony Brooks~ 26    ""    1       0        3           4          
 8 atl   8     Matt Schaub  39    ""    1       0        3           -4         
 9 atl   83    Russell Gage 24    "wr"  16      8        2           9          
10 atl   15    Brandon Pow~ 25    ""    15      1        2           7          
# ... with 11 more rows, and 19 more variables: rushing_td <chr>,
#   rushing_lng <chr>, rushing_y_a <chr>, rushing_y_g <chr>, rushing_a_g <chr>,
#   rushing_fmb <chr>, receiving_tgt <chr>, receiving_rec <chr>,
#   receiving_yds <chr>, receiving_y_r <chr>, receiving_td <chr>,
#   receiving_lng <chr>, receiving_r_g <chr>, receiving_y_g <chr>,
#   receiving_ctch_percent <chr>, receiving_y_tgt <chr>, yds_touch <chr>,
#   yds_y_tch <chr>, yds_y_scm <chr>
…
