2.3 Scraping: Messy and Mangled | R Module 2
…
[[6]]
                id                 name  home
1 7863366-11904220 Jacksonville Jaguars  TRUE
2 7863366-11904230       Houston Texans FALSE

We can also find the current line of each of these games. Here, I have created a function called get_bovada_lines() which traverses this complicated (yet clean) JSON object using methods explored in Chapter 3 and combines the information together into a rectangular data set.

bov_res %>%
  get_bovada_lines() %>%
  print(n = 10)

# A tibble: 16 x 16
   id    link  description startTime           live  type  lastModified       
   <chr> <chr> <chr>       <dttm>              <lgl> <chr> <dttm>             
 1 7834~ /foo~ Tampa Bay ~ 2020-11-02 18:15:00 FALSE GAME~ 2020-11-02 15:10:37
 2 7834~ /foo~ Tampa Bay ~ 2020-11-02 18:15:00 FALSE GAME~ 2020-11-02 15:10:37
 3 7861~ /foo~ Carolina P~ 2020-11-08 11:00:00 FALSE GAME~ 2020-11-02 15:05:18
 4 7861~ /foo~ Carolina P~ 2020-11-08 11:00:00 FALSE GAME~ 2020-11-02 15:05:18
 5 7863~ /foo~ Chicago Be~ 2020-11-08 11:00:00 FALSE GAME~ 2020-11-02 15:12:52
 6 7863~ /foo~ Chicago Be~ 2020-11-08 11:00:00 FALSE GAME~ 2020-11-02 15:12:52
 7 7863~ /foo~ Denver Bro~ 2020-11-08 11:00:00 FALSE GAME~ 2020-11-02 15:01:38
 8 7863~ /foo~ Denver Bro~ 2020-11-08 11:00:00 FALSE GAME~ 2020-11-02 15:01:38
 9 7863~ /foo~ Detroit Li~ 2020-11-08 11:00:00 FALSE GAME~ 2020-11-02 15:05:18
10 7863~ /foo~ Detroit Li~ 2020-11-08 11:00:00 FALSE GAME~ 2020-11-02 15:05:18
# ... with 6 more rows, and 9 more variables: team_id <chr>, name <chr>,
#   home <lgl>, juice_money <dbl>, handicap_spread <dbl>, juice_spread <dbl>,
#   handicap_total <dbl>, juice_over <dbl>, juice_under <dbl>
…
